919,Abrasion without infection,50
682.9,Abscess acute NOS,60
706.1,Acne cystic and vulgaris,70
692.3,Acneiform drug eruption,80
701.9/216.9,Achrochordon ,90
702,Actinic keratosis,100
216._*,Adenoma,110
272.8,Adiposis dolorosa ,120
704.01,Alopecia areata,130
757.4,Alopecia congenital,140
704,Alopecia unspecified,150
216._*,Angiokeratoma NOS,160
214,Angiolipoma of face,170
214.1,Angiolipoma skin (not face),180
228.01,Angioma benign,190
691.8,Atopic dermatitis,200
701.3,Atrophy (skin),210
607.1,Balanitis,220
607.81,Balanitis xerotica obliterans,230
173._*,Basal cell carcinoma   ,240
173.01, Basal cell carcinoma lip  ,250
173.11,Basal cell carcinoma eyelid  ,260
173.21,Basal cell carcinoma ear and external auditory canal  ,270
173.31,Basal cell carcinoma face cheek  ,25
173.41,Basal cell carcinoma scalp/neck ,30
173.51,Basal cell carcinoma trunk  ,35
173.61,Basal cell carcinoma arm/shoulder  ,40
173.71,Basal cell carcinoma leg/hip  ,45
173.81,Basal cell carcinoma skin (specified site)  ,50
173.91,Basal cell carcinoma skin (unspecified site),55
919.4, Bee sting,60
216._*,Benign neoplasm,65
216,Benign neoplasm lip,70
216.1,Benign neoplasm eyelid  ,75
216.2,Benign neoplasm ear  ,80
216.3,Benign neoplasm face cheek  ,85
216.4,Benign neoplasm scalp/neck ,90
216.5,Benign neoplasm trunk  ,95
216.6,Benign neoplasm arm  ,100
216.7,Benign neoplasm leg  ,105
216.8,Benign neoplasm skin (unspecified site),110
989.5,Bite arthropod,115
529.3,Black hairy tongue,120
232._*,Bowen's disease skin,125
232,Bowen's disease lip  ,130
232.1,Bowen's disease eyelid  ,135
232.2,Bowen's disease ear  ,140
232.3,Bowen's disease face cheek  ,145
232.4,Bowen's disease scalp/neck ,150
232.5,Bowen's disease trunk  ,155
232.6,Bowen's disease arm  ,160
232.7,Bowen's disease leg  ,165
232.8,Bowen's disease skin (unspecified site),170
949.1,Burn 1st degree (erythema),175
949,Burn unspecified,180
782,Burning sensation (skin),185
709.09,Cafe-au-lait macules,190
700,Callus,195
112.3,Candidiasis intertrigo nails skin,200
448.9,Capillary disease,205
78.3,Cat scratch disease,210
681.9,Cellulitis and abscess of unspecified digit,215
682.8,Cellulitis/abscess,220
682.9,Cellulitis NOS,225
91,Chancre syphilitic,230
528.5,Cheilitis,235
228.01,Cherry angioma,240
380,Chondrodermatitis nodularis helicis,245
133.8,Chigger bites,250
709.2,Cicatrix,255
700,Clavus corn,260
702.8,Cutaneous horn,265
126.9,Cutaneous larva migrans (creeping eruption) NOS,270
706.2,Cyst epidermal,275
757.39,Darier disease,280
998.32,Dehiscence of wound,285
692.7,Dermatitis actinic,290
691.8,Dermatitis atopic,295
692.4,Dermatitis chemical,300
692.9,Dermatitis contact allergic eczematous NOS,305
695.89,Dermatitis exfoliative,310
691,Dermatitis diaper,315
373.32,Dermatitis eyelid contact,320
698.4,Dermatitis factitial,325
694,Dermatitis herpetiformis,330
693,Dermatitis internal medicine,335
695.3,Dermatitis perioral,340
692.6,Dermatitis poison ivy or oak,345
690.18,Dematitis seborrheic,350
454.1,Dermatitis stasis,355
110.5,Dermatophytosis corporis,360
110.4,Dermatophytosis pedis,365
110.1,Dermatophytosis unguium,370
708.3,Dermographism,20
695.4,Discoid lupus erythematosus,25
705.81,Dyshidrosis / pompholyx,30
459.89,Ecchymoses,35
692.9,Eczema allergic nummular,40
706.8,Eczema asteatotic xerotic,45
782.3,Edema localized NOS,50
706.2,Epidermal cyst,55
695.1,Erythema multiforme,60
695.2,Erythema nodosum,65
695.9,Erythematous condition (erythema unspecified NOS),70
726.91,Exostosis of unspecified site,75
528.7,Erythroplakia of mouth / tongue,80
233.5,Erythroplasia of queyrat penis,85
782.1,Exanthem nonspecific,90
57.9,Exanthem viral unspecified,95
681.01,Felon,100
215._*,Fibroma connective tissue,105
704.8,Folliculitis,110
709.4,Foreign body granuloma skin,115
680.9,Furuncle,120
54.1,Genital herpes,125
78.19,Genital warts,130
228.01,Glomus tumor skin,135
695.89,Granuloma annulare,140
99.2,Granuloma inguinale,145
228.01,Hemangioma skin and subcutaneous tissue,150
54.1,Herpes simplex genital,155
54.9,Herpes simplex NOS,160
54.13,Herpes simplex penis,165
53.12,Herpes zoster post-herpetic trigeminal neuralgia,170
54.2,Herpes zoster with ophthalmicus,175
53.9,Herpes zoster without complications,180
705.83,Hidradenitis suppurativa,185
704.1,Hirsutism NOS,190
705.21,Hyperhidrosis,195
709.09,Hyper / hypopigmentation,200
701.4,Hypertrophic scar,205
701.1,Ichthyosis acquired,210
684,Impetigo,215
686.9,Infection of skin/subcutaneous NOS,220
919.4,Insect bite nonvenomous without infectionx,225
919.5,Insect bite nonvenomous with infection,230
695.89,Intertrigo,235
176,Kaposi sarcoma skin,240
701.4,Keloid,245
757.39,Keratoderma,250
757.39,Keratosis pilaris,255
709.09,Lentigo,260
528.6,Leukoplakia of lips / mouth,265
697.8,Lichen planus acute / chronic hypertrophic,270
697, Lichen planus NOS,275
701,Lichen sclerosus et atrophicus,280
698.3,Lichenification Lichen simplex chronicus,285
214,Lipoma face,290
214.1,Lipoma other skin / subcutaneous,20
V58.69,Long-term medication use,25
695.4,Lupus erythematosus skin,30
710,Lupus erythematosus systemic,35
172._*,Melanoma,40
172,Melanoma lip  ,45
172.1,Melanoma eyelid  ,50
172.2,Melanoma ear  ,55
172.3,Melanoma face cheek  ,60
172.4,Melanoma scalp/neck ,65
172.5,Melanoma trunk  ,70
172.6,Melanoma arm  ,75
172.7,Melanoma leg  ,80
172.8,Melanoma skin (unspecified site),85
709.09,Melasma,90
706.2,Milia milium,95
374.84,Milia eyelid,100
78,Molluscum contagioisum,105
701,Morphea,110
202.1,Mycosis fungoides,115
703.9,Nail disorder,120
703.8,Nail dystrophy,125
703,Nail ingrown with infection,130
238.2,Neoplasm uncertain behavior of skin,135
239.2,Neoplasm of unspecified nature of bone soft tissue and skin,140
216._*,Neoplasm benign of skin,145
216,Neoplasm benign of lip  ,150
216.1,Neoplasm benign of eyelid  ,155
216.2,Neoplasm benign of ear  ,160
216.3,Neoplasm benign of face cheek  ,165
216.4,Neoplasm benign of scalp/neck ,170
216.5,Neoplasm benign of trunk  ,175
216.6,Neoplasm benign of arm  ,180
216.7,Neoplasm benign of leg  ,185
216.8,Neoplasm benign of skin (unspecified site),190
691.8,Neurodermatitis,195
216._*,Nevus dermal,200
795.51,Nonspecific reaction to tuberculin skin test without active tuberculosis,205
782,Notalgia paresthetica,210
692.9,Nummular eczema,215
681.02,Onychia and paronychia of finger,220
681.11,Onychia and paronychia of toe,225
703.8,Onycholysis,230
110.1,Onychomycosis,235
690.8,Parakeratosis,240
696.2,Parapsoriasis,245
782,Paresthesia,250
681.02,Paronychia (finger),255
681.11,Paronychia (toe),260
132,Pediculosis capitis,265
132.1,Pediculosis corporis,270
132.2,Pediculosis pubis,275
704.8,Perifolliculitis scalp NOS,280
694.5,Pemphigoid (bullous),285
694.4,Pemphigus vulgaris,290
695.3,Perioral dermatitis,295
V10.83,Personal history of malignant neoplasm of skin,300
V10.82,Personal history of melanoma,305
782.7,Petechia,310
692.79,Photodermatitis,315
698.4,Picker's nodule ,320
709,  Pigmentation abnormality,325
704.41,Pilar cyst,330
696.5,Pityriasis alba,335
696.3,Pityriasis rosea,340
696.4,Pityriasis rubra pilaris,345
111,Pityriasis versicolor,350
696.2,PLEVA,355
692.72,Polymorphous light eruption,360
277.1,Porphyria,365
757.32,Port wine stain,370
53.12,Postherpetic neuralgia (trigeminal),375
998.59,Postoperative infection,380
709.09,Progressive pigmentary dermatosis,385
698.3,Prurigo nodularis,20
698.2,Prurigo NOS,25
698,Pruritus ani,30
698.9,Pruritus NOS,35
696.1,Psoriasis (except arthropathic),40
696,Psoriatic arthropathy,45
287,Purpura allergic,50
287.2,Purpura Bateman,55
709.1,Purpura primary,60
686.9,Pustule skin infection NOS,65
686.01,Pyoderma gangrenosum,70
686.09,Pyoderma skin,75
686.1,Pyogenic granuloma skin,80
443,Raynaud disease,85
695.3,Rhinophyma,90
701.8,Rhytidosis,95
695.3,Rosacea,100
135,Sarcoidosis,105
133,Scabies,110
701.4,Scar fibrosis hypertrophic keloid,115
709.2,Scar / fibrosis of skin NOS,120
34.1,Scarlatina,125
709.09,Schamberg disease,130
710.1,Scleroderma systemic sclerosis,135
701,Scleroderma circumscribed localized,140
690.1,Seborrheic dermatitis,145
706.9,Sebaceous hyperplasia,150
702.11,Seborrheic keratosis inflamed,155
702.19,Seborrheic keratosis non-inflamed,160
999.5,Serum sickness eruption,165
202.2,Sezary disease,170
53.9,Shingles without complications,175
701.9,Skin tag,180
686.9,Soft tissue infection,185
173._*,Specified malignant neoplasm of the skin,190
173.09, Specified malignant neoplasm of the lip ,195
173.19,Specified malignant neoplasm of the eyelid including canthus ,200
173.29,Specified malignant neoplasm of the ear and external auditory canal ,205
173.39,Specified malignant neoplasm of the face ,210
173.49,Specified malignant neoplasm of the scalp and neck ,215
173.59,Specified malignant neoplasm of the trunk ,220
173.69,Specified malignant neoplasm of the arm/shoulder ,225
173.79,Specified malignant neoplasm of the leg/hip ,230
173.89,Specified malignant neoplasm of the specified site ,235
173.99,Specified malignant neoplasm of the unspecified site,240
919.4,Spider bite nonvenoumous without infection,245
448.1,Spider veins,250
173._*,Squamous cell cancer skin,255
173.02,Squamous cell cancer lip  ,260
173.12,Squamous cell cancer eyelid  ,265
173.22,Squamous cell cancer ear and external auditory canal ,270
173.32,Squamous cell cancer face cheek  ,275
173.42,Squamous cell cancer scalp/neck ,280
173.52,Squamous cell cancer trunk  ,285
173.62,Squamous cell cancer arm/shoulder  ,290
173.72,Squamous cell cancer leg/hip  ,295
173.82,Squamous cell cancer skin (specified site) ,300
173.92,Squamous cell cancer skin (unspecified site),305
454.1,Stasis,310
998.59,Stitch abscess,315
701.3,Striae,320
702.8,Stucco keratosis,325
692.71,Sunburn,330
692.72,Sun damaged skin NOS,335
V67.00,Surgical follow-up no complications,340
V58.32,Suture removal,345
705.9,Sweat gland disorder NOS,350
91,Syphilis primary genital,355
91.9,Syphilis secondary NOS,360
709.09,Tattoo,365
448,Telangiectasia hereditary,370
448.1,Telangiectasia spider,375
448.9,Telangiectasia unspecified,380
704.02,Telogen effluvium,385
112,Thrush,390
110.5,Tinea corporis,395
110.3,Tinea cruris,400
110.4,Tinea pedis,405
111,Tinea versicolor,410
529.1,Tongue geographic,415
704.42,Trichilemmal cyst,420
707.06,Ulcer ankle,425
707.12,Ulcer calf,430
707.07,Ulcer heel,435
707.1,Ulcer lower limb,440
707.13,Ulcer other parts of foot,445
173,Unspecified malignant neoplasm of the skin lip ,450
173.1,Unspecified malignant neoplasm of the skin eyelid including canthus ,455
173.2,Unspecified malignant neoplasm of the skin ear and external auditory canal ,460
173.3,Unspecified malignant neoplasm of the skin face ,465
173.4,Unspecified malignant neoplasm of the skin scalp and neck ,470
173.5,Unspecified malignant neoplasm of the skin trunk ,475
173.6,Unspecified malignant neoplasm of the skin arm/shoulder ,480
173.7,Unspecified malignant neoplasm of the skin leg/hip ,485
173.8,Unspecified malignant neoplasm of the skin specified site ,490
173.9,Unspecified malignant neoplasm of the skin unspecified site,495
708,Urticaria allergic,500
708.8,Urticaria chronic,505
708.3,Urticaria dermatographic,510
995.1,Urticaria giant angioedema,515
708.9,Urticaria NOS,520
447.6,Vasculitis,525
287,Vasculitis allergic,530
454.1,Varicose vein lower extremity with inflammation,535
454.9,Varicose vein lower extremity without ulcer or inflammation,540
78.19,Verruca plana,545
78.12,Verruca plantar,550
78.19,Verruca venereal,555
78.1,Verruca vulgaris,560
919.2,Vesicle multiple unspecified,565
709.8,Vesicular eruption,570
709.01,Vitiligo of skin,575
998.59, Wound abscess,580
272.2,Xanthoma NOS,585
706.8,Xerosis ,590
*_.2,Xerosis ear  ,595
_.1,Xerosis eyelid  ,600
_.3,Xerosis face cheek ,605
_.0,Xerosis lip ,610
_.8,Xerosis skin (unspecified site)  ,615
_.4,Xerosis scalp/neck  ,620
_.6,Xerosis arm  ,625
_.7,Xerosis leg  ,630
_.5,Xerosis trunk,635
